1 1 1
1 10 20
100 200 125
201 210 89
900 1000 174
1 999999 525
305593 428553 449
230758 613769 470
549772 596216 434
849757 949526 507
343502 598764 470
37785 651209 509
159890 974091 525
93310 661129 509
857626 863390 370
798697 972214 525
254323 670797 509
350140 928968 525
248814 785544 509
705965 720412 411
418617 833793 509
663505 748149 504
47015 223316 386
4516 939199 525
336653 724239 509
787874 836297 468
171969 645802 509
392483 624314 470
119895 437306 449
522008 996861 525
658858 849970 525
450506 511304 444
508990 695390 509
419300 437878 418
87736 688253 509
187846 566117 470
162005 983043 525
700881 912435 525
764506 816350 468
664504 712742 504
404085 580856 470
290952 699949 509
425001 645093 509
419417 428178 418
653441 863787 525
126726 192559 383
117665 161971 383
146650 812350 509
234203 540727 470
788603 794775 437
17389 439159 449
111133 586110 470
173316 978345 525
471951 936293 525
241762 480941 449
474118 818086 509
155505 722903 509
156998 598761 470
14242 64931 340
246535 529900 470
601231 635697 509
543375 863977 525
550472 640337 509
430779 454141 400
320089 997849 525
138919 261146 443
575667 845415 525
322470 902317 525
808684 902472 525
324863 776516 509
329227 938369 525
532621 722434 509
174072 229299 386
144661 205962 383
205394 965970 525
299641 917817 525
459654 916050 525
458479 775143 509
484833 635210 509
453218 968197 525
242332 531871 470
643369 968822 525
5575 760523 509
418122 879862 525
103001 617225 470
33911 682946 509
195046 983063 525
210751 541948 470
469070 719322 509
378968 665883 509
181483 696142 509
229730 721470 509
689674 693003 442
370117 550365 470
861960 911953 476
574360 707129 509
668062 740834 504
366359 529496 470
396442 905420 525
82764 431096 449
67083 136690 354
550520 768810 509
12847 321874 443
64529 951174 525
459851 998855 525
153855 484672 449
10065 634058 509
83770 842058 525
72005 602044 470
236456 639954 509
162835 331617 443
555011 603542 434
508501 961731 525
702630 738125 504
367608 796372 509
183994 764401 509
271978 780633 509
330971 522316 470
264858 400500 441
806029 994143 525
579981 916352 525
163188 276416 443
500255 821458 509
364893 442277 449
50291 533989 470
38717 963731 525
457195 531634 470
670417 848548 525
345480 854923 525
223253 606568 470
359202 858104 525
559022 989693 525
24142 323969 443
279088 939160 525
419035 483031 444
839255 968549 507
309905 335857 384
140717 423173 449
258770 615641 470
511930 551532 470
402954 641608 509
367285 934848 525
548233 644353 509
295551 378251 441
17801 400146 443
70487 870141 525
467201 813644 509
666029 802713 504
95913 183524 383
417081 633460 509
221285 717670 509
12882 627987 509
68880 77221 351
648383 746549 504
111004 525221 470
172797 743456 509
